Assignment 9: Visualization - Revealing a graph
…
library(gifski)

## Warning: package 'gifski' was built under R version 4.0.3

df <- read_csv('https://covid19.who.int/WHO-COVID-19-global-data.csv')

df$month <- month(df$Date_reported, label = TRUE)

Hint:

Use filter to select the most current date

df %>% filter(Date_reported == '2020-11-16') %>% arrange(-Cumulative_cases)

## # A tibble: 235 x 9
##    Date_reported Country_code Country WHO_region New_cases Cumulative_cases
##    <date>        <chr>        <chr>   <chr>          <dbl>            <dbl>
##  1 2020-11-16    US           United~ AMRO          155001         10796432
##  2 2020-11-16    IN           India   SEARO          30548          8845127
##  3 2020-11-16    BR           Brazil  AMRO           38307          5848959
##  4 2020-11-16    RU           Russia~ EURO           22778          1948603
##  5 2020-11-16    FR           France  EURO           27123          1945468
##  6 2020-11-16    ES           Spain   EURO               0          1458591
##  7 2020-11-16    GB           The Un~ EURO           24962          1369322
##  8 2020-11-16    AR           Argent~ AMRO            8468          1304846
##  9 2020-11-16    CO           Colomb~ AMRO            8307          1191004
## 10 2020-11-16    IT           Italy   EURO           33977          1178529
## # ... with 225 more rows, and 3 more variables: New_deaths <dbl>,
## #   Cumulative_deaths <dbl>, month <ord>
…
Create the new variable (column) death_per_cases recording the number of deaths per cases (Hint: divide cumulative deaths by cumulative cases). What are the three countries with the highest deaths per cases?

df$death_per_cases <- df$Cumulative_deaths / df$Cumulative_cases

df %>% filter(Date_reported == '2020-11-16') %>% arrange(-death_per_cases)

## # A tibble: 235 x 10
##    Date_reported Country_code Country WHO_region New_cases Cumulative_cases
##    <date>        <chr>        <chr>   <chr>          <dbl>            <dbl>
##  1 2020-11-16    YE           Yemen   EMRO               0             2072
##  2 2020-11-16    MX           Mexico  AMRO            5860          1003253
##  3 2020-11-16    MS           Montse~ AMRO               0               13
##  4 2020-11-16    SD           Sudan   EMRO               0            14626
##  5 2020-11-16    EC           Ecuador AMRO             668           180295
##  6 2020-11-16    IM           Isle o~ EURO               0              363
##  7 2020-11-16    TD           Chad    AFRO               6             1597
##  8 2020-11-16    BO           Bolivi~ AMRO             112           143181
##  9 2020-11-16    EG           Egypt   EMRO             220           110767
## 10 2020-11-16    FJ           Fiji    WPRO               0               35
## # ... with 225 more rows, and 4 more variables: New_deaths <dbl>,
## #   Cumulative_deaths <dbl>, month <ord>, death_per_cases <dbl>
…
